
Rohan@acer-RK MINGW64 /g/DevOps/Git_Repo/vivek/pride-master (master)
$ history
    1  cd
    2  pwd
    3  exit
    4  git config --global user.name "viveG:\DevOps\GitHubk"
    5  git config --global user.email "github5406@gmail.com"
    6  git --version

    8  git config --list
   10  git user
   11  git --help
   12  pwd
   16  ls
   17  ls -l | grep '^d'
   26  git init
   27  git status
   51  git add C:\Users\Rohan\Downloads .
   52  git clone C:\Users\Rohan\Downloads .
  125  git commit -m "commiting the folder" pride-master
  126  git push -u origin vivek
  127  git branch
  128  git branch vivek
  134  git checkout vivek
  139  git branch
  140  git checkout vivek
  141  git add pride-master/
  146  git branch -a
  147  git remote -v
  148  git reset
  149  ls
  150  git branch
  151  git checkout master
  152  ls
  153  git checkout vivek
  154  ls
  155  git add pride-master/
  156  git status
  157  git checkout master
  158  git status
  159  git add pride-master/
  160  git status
  168  git checkout vivek
  169  git add pride-master/
  172  git clone ../../pride-master .
  173  git clone ../pride-master .
  174  git clone /../../pride-master .
  175  git clone G:\DevOps\pride-master .
  176  ls
  177  git status
  178  git branch -u origin/master
  179  git status
  180  git checkout master
  181  git checkout vivek
  182  ls
  183  rmdir pride-master/
  184  rm -f pride-master/
  185  rm -r pride-master/
  186  ls
  187  ls
  188  git status
  189  git add pride-master
  190  git status
  191  git checkout master
  192  ls
  193  git status
  194  pwd
  195  ls -lsrt
  196  git clone https://github.com/vivek5406/vivek.git .
  197  git clone https://github.com/vivek5406/vivek.git
  198  ls -lrt
  199  git status
  200  git init
  201  cd pride-master/
  202  ls -lrt
  203  git init
  204  git push vivek : vivek
  205  git checkout vivek
  206  git branch vivek
  207  git checkout -b vivek
  208  git push vivek : vivek
  209  git remote add origin https://github.com/vivek5406/vivek.git
  210  git push origin vivek
  211  git init
  212  git add .
  213  ls -lrt
  214  git push origin master
  215  git push vivek : vivek
  216  git push origin vivek : vivek
  217  git push
  218  git push vivek --all
  219  git status
  220  git commit -m "initial commit"
  221  git push origin vivek
  222  git fetch
  223  git push origin vivek
  224  git fetch origin
  225  git merge origin vivek
  226  git merge vivek
  227  git pull origin vivek
  228  git pull vivek
  229  git push oriign vivek
  230  git push origin vivek
  231  git checkout -b master
  232  git push origin master
  233  git push origin master
  234  git push --force vivek
  235  git push --force master
  236  git config
  237  git push --force master
  238  git push origin master --force
  239  git checkout -b vivek
  240  git push origin vivek force
  241  git push origin vivek --force
  242  history



1 - change locally vivek branch/ push to vivek in remote/merge with master in remote

switch the branch vivek in local
delete/add some files in local and push to vivek branch in remote
give the pull request/ merge with the master